US ARMS TRANSFER DATA
…
Top_Importers_50_to_80

## # A tibble: 112 x 2
##    Country        Value
##    <chr>          <int>
##  1 Germany        33841
##  2 Iran           25115
##  3 Japan          22045
##  4 Italy          16491
##  5 Israel         15884
##  6 Canada         14696
##  7 Turkey         13428
##  8 Taiwan         12819
##  9 United Kingdom 12758
## 10 South Korea    12170
## #  with 102 more rows

US imports between 1981-1992: Nearing the end of the Cold War & Gulf War

Top_Importers_81_to_92<-Nation %>%
  filter(Year %in% c(1981:1992))%>%
  group_by(Country) %>%
  select(Country, Value) %>%
  summarise_each(funs(sum)) %>%
  arrange(desc(Value))
Top_Importers_81_to_92

## # A tibble: 112 x 2
##    Country      Value
##    <chr>        <int>
##  1 Japan        23588
##  2 Saudi Arabia 10853
##  3 South Korea   9715
##  4 Israel        9021
##  5 Egypt         8974
##  6 Netherlands   6740
##  7 Turkey        6376
##  8 Spain         5642
##  9 Canada        5542
## 10 Australia     5231
## #  with 102 more rows

US Imports between 1993-2000: Aftermath of the Gulf War, George Bush Senior & Bill Clitons administration

Top_Importers_93_to_2000<-Nation %>%
  filter(Year %in% c(1993:2000))%>%
  group_by(Country) %>%
  select(Country, Value) %>%
  summarise_each(funs(sum)) %>%
  arrange(desc(Value))
Top_Importers_93_to_2000

## # A tibble: 92 x 2
##    Country        Value
##    <chr>          <int>
##  1 Taiwan         11587
##  2 Saudi Arabia   10637
##  3 Turkey          9039
##  4 South Korea     8857
##  5 Japan           8803
##  6 Egypt           7832
##  7 United Kingdom  4076
##  8 Israel          3999
##  9 Greece          3354
## 10 Finland         2685
## #  with 82 more rows

US imports from 2001 to 2006: War on Terror era

Top_Importers_01_to_06<-Nation %>%
  filter(Year %in% c(2001:2006))%>%
  group_by(Country) %>%
  select(Country, Value) %>%
  summarise_each(funs(sum)) %>%
  arrange(desc(Value))
Top_Importers_01_to_06

## # A tibble: 79 x 2
##    Country        Value
##    <chr>          <int>
##  1 South Korea     4175
##  2 Israel          3590
##  3 Egypt           3195
##  4 Greece          2888
##  5 UAE             2710
##  6 United Kingdom  2368
##  7 Japan           2326
##  8 Taiwan          2201
##  9 Italy           1300
## 10 Singapore       1253
## #  with 69 more rows

US imports from 2007 to 2014: Arab Spring + Era of Civil Unrest

Top_Importers_07_to_14<-Nation %>%
  filter(Year %in% c(2007:2014))%>%
  group_by(Country) %>%
  select(Country, Value) %>%
  summarise_each(funs(sum)) %>%
  arrange(desc(Value))
Top_Importers_07_to_14

## # A tibble: 106 x 2
##    Country        Value
##    <chr>          <int>
##  1 South Korea     6678
##  2 UAE             5118
##  3 Australia       4922
##  4 Saudi Arabia    3824
##  5 Japan           3081
##  6 Singapore       2981
##  7 Turkey          2925
##  8 Pakistan        2754
##  9 India           2601
## 10 United Kingdom  2414
## #  with 96 more rows
…
US does not transfer arms during Arab Spring to Libya and very little to Yemen, but greatly supports Egypt in arms even after publicly denouncing Hosnei Mubarak.

US imports from 2015 to now

Top_Importers_15_to_19<-Nation %>%
  filter(Year %in% c(2015:2019))%>%
  group_by(Country) %>%
  select(Country, Value) %>%
  summarise_each(funs(sum)) %>%
  arrange(desc(Value))
Top_Importers_15_to_19

## # A tibble: 101 x 2
##    Country        Value
##    <chr>          <int>
##  1 Saudi Arabia   13004
##  2 Australia       4826
##  3 UAE             3373
##  4 South Korea     2755
##  5 Japan           2465
##  6 Qatar           2454
##  7 Israel          2242
##  8 Iraq            2232
##  9 United Kingdom  1674
## 10 Italy           1393
## #  with 91 more rows

colnames(Nation) <- c("Year", "Country", "Value")

Lets look at another hostile region of the world: The Indian Subcontinent

Nation %>%
  filter(Country == c("Pakistan", "India"))%>%
  group_by(Year) %>%
  arrange(desc(Year))

## Warning in Country == c("Pakistan", "India"): longer object length is not a
## multiple of shorter object length

## # A tibble: 52 x 3
## # Groups:   Year [48]
##     Year Country  Value
##    <int> <chr>    <int>
##  1  2019 India      641
##  2  2018 Pakistan    12
##  3  2017 India      250
##  4  2016 India       41
##  5  2015 Pakistan   107
##  6  2014 Pakistan   201
##  7  2013 Pakistan   137
##  8  2012 India      139
##  9  2011 India      203
## 10  2010 Pakistan  1027
## #  with 42 more rows
…
